…
``` r
BACI_RoachRun_Control
```

    ## # A tibble: 143 x 8
    ##    objects                 subsample index species  time     X     Y     Z
    ##    <chr>                   <chr>     <chr> <chr>   <dbl> <dbl> <dbl> <dbl>
    ##  1 Subsample_1 1 (Omykiss) 1         " 1"  Omykiss  90.0 -23.1  3.41 11.9 
    ##  2 Subsample_1 1 (Omykiss) 1         " 1"  Omykiss  99.0 -27.4 10.0  14.5 
    ##  3 Subsample_1 1 (Omykiss) 1         " 1"  Omykiss  93.0 -23.0  5.42 12.8 
    ##  4 Subsample_1 1 (Omykiss) 1         " 1"  Omykiss 105.  -31.5  7.74 11.6 
    ##  5 Subsample_1 1 (Omykiss) 1         " 1"  Omykiss  96.0 -22.1  6.17 13.3 
    ##  6 Subsample_1 1 (Omykiss) 1         " 1"  Omykiss 102.  -29.5  8.89 12.3 
    ##  7 Subsample_1 1 (Omykiss) 1         " 1"  Omykiss 108.  -33.2  6.77 12.2 
    ##  8 Subsample_1 1 (Omykiss) 1         " 1"  Omykiss 114.  -33.5  6.81 10.6 
    ##  9 Subsample_1 1 (Omykiss) 1         " 1"  Omykiss 117.  -32.6  6.79  9.35
    ## 10 Subsample_1 1 (Omykiss) 1         " 1"  Omykiss 120.  -32.1  7.14 11.2 
    ## # ... with 133 more rows
